dim public_key <- 0xc93d288c7fb0dc702d2527a2c51d229fedae762b
dim signature  <- 0xed2678e3102dabfb160e4f2efc8e993bd25e234fcf606a7209212a016951824f2f95f2697d603aa4402da676f747cbfb66cebc841237bd66d10b3c8c669c5509

